%YAML 1.1
%TAG !u! tag:unity3d.com,2011:
--- !u!1001 &103458778215451561
PrefabInstance:
  m_ObjectHideFlags: 0
  serializedVersion: 2
  m_Modification:
    m_TransformParent: {fileID: 0}
    m_Modifications:
    - target: {fileID: 8418699092677610337, guid: efabb1d069a94874e86b7bbfd6ec466c,
        type: 3}
      propertyPath: m_Name
      value: Bridge
      objectReference: {fileID: 0}
    - target: {fileID: 8418699092677612701, guid: efabb1d069a94874e86b7bbfd6ec466c,
        type: 3}
      propertyPath: m_LocalPosition.x
      value: -115.29
      objectReference: {fileID: 0}
    - target: {fileID: 8418699092677612701, guid: efabb1d069a94874e86b7bbfd6ec466c,
        type: 3}
      propertyPath: m_LocalPosition.y
      value: -39.2
      objectReference: {fileID: 0}
    - target: {fileID: 8418699092677612701, guid: efabb1d069a94874e86b7bbfd6ec466c,
        type: 3}
      propertyPath: m_LocalPosition.z
      value: 168.86
      objectReference: {fileID: 0}
    - target: {fileID: 8418699092677612701, guid: efabb1d069a94874e86b7bbfd6ec466c,
        type: 3}
      propertyPath: m_LocalRotation.x
      value: -0.59755087
      objectReference: {fileID: 0}
    - target: {fileID: 8418699092677612701, guid: efabb1d069a94874e86b7bbfd6ec466c,
        type: 3}
      propertyPath: m_LocalRotation.y
      value: -0.3724687
      objectReference: {fileID: 0}
    - target: {fileID: 8418699092677612701, guid: efabb1d069a94874e86b7bbfd6ec466c,
        type: 3}
      propertyPath: m_LocalRotation.z
      value: 0.37560812
      objectReference: {fileID: 0}
    - target: {fileID: 8418699092677612701, guid: efabb1d069a94874e86b7bbfd6ec466c,
        type: 3}
      propertyPath: m_LocalRotation.w
      value: -0.6025933
      objectReference: {fileID: 0}
    - target: {fileID: 8418699092677612701, guid: efabb1d069a94874e86b7bbfd6ec466c,
        type: 3}
      propertyPath: m_RootOrder
      value: 0
      objectReference: {fileID: 0}
    - target: {fileID: 8418699092677612701, guid: efabb1d069a94874e86b7bbfd6ec466c,
        type: 3}
      propertyPath: m_LocalEulerAnglesHint.x
      value: 90
      objectReference: {fileID: 0}
    - target: {fileID: 8418699092677612701, guid: efabb1d069a94874e86b7bbfd6ec466c,
        type: 3}
      propertyPath: m_LocalEulerAnglesHint.y
      value: 0
      objectReference: {fileID: 0}
    - target: {fileID: 8418699092677612701, guid: efabb1d069a94874e86b7bbfd6ec466c,
        type: 3}
      propertyPath: m_LocalEulerAnglesHint.z
      value: 0
      objectReference: {fileID: 0}
    - target: {fileID: 8418699092677612701, guid: efabb1d069a94874e86b7bbfd6ec466c,
        type: 3}
      propertyPath: m_LocalScale.y
      value: 30.66806
      objectReference: {fileID: 0}
    - target: {fileID: 8418699092677612701, guid: efabb1d069a94874e86b7bbfd6ec466c,
        type: 3}
      propertyPath: m_LocalScale.x
      value: 9.058906
      objectReference: {fileID: 0}
    - target: {fileID: 8418699092677612701, guid: efabb1d069a94874e86b7bbfd6ec466c,
        type: 3}
      propertyPath: m_LocalScale.z
      value: 2.4203885
      objectReference: {fileID: 0}
    - target: {fileID: 8418699092677612703, guid: efabb1d069a94874e86b7bbfd6ec466c,
        type: 3}
      propertyPath: m_Materials.Array.data[0]
      value: 
      objectReference: {fileID: 2100000, guid: 588f03c6deb596c418450699e805e964, type: 2}
    m_RemovedComponents: []
  m_SourcePrefab: {fileID: 100100000, guid: efabb1d069a94874e86b7bbfd6ec466c, type: 3}
